…
2. How many genera and species are represented in the data? What are the total number of observations? Which species is most/ least frequently sampled in the study?

_There are 26 genera and 40 species represented in these data. The most frequently sampled species is the merriami. The least frequently sampled species is a 6 way tie between clarki, scutalatus, tereticaudus, tigris, uniparens and viridis. The total number of observations is 34786._ 


```r
deserts %>% 
  group_by(genus) %>% 
  summarise(genus_total= n())
```

```
## # A tibble: 26 x 2
##    genus            genus_total
##  * <chr>                  <int>
##  1 Ammodramus                 2
##  2 Ammospermophilus         437
##  3 Amphispiza               303
##  4 Baiomys                   46
##  5 Calamospiza               13
##  6 Callipepla                16
##  7 Campylorhynchus           50
##  8 Chaetodipus             6029
##  9 Cnemidophorus              2
## 10 Crotalus                   2
## # ... with 16 more rows
```

```r
deserts %>% 
  group_by(species) %>% 
  summarise(species_total= n()) %>% 
  arrange(desc(species_total))
```

```
## # A tibble: 40 x 2
##    species      species_total
##    <chr>                <int>
##  1 merriami             10596
##  2 penicillatus          3123
##  3 ordii                 3027
##  4 baileyi               2891
##  5 megalotis             2609
##  6 spectabilis           2504
##  7 torridus              2249
##  8 flavus                1597
##  9 eremicus              1299
## 10 albigula              1252
## # ... with 30 more rows
```
…
6. Add another layer to your answer from #4 using `geom_point` to get an idea of how many measurements were taken for each species.

```r
deserts%>%
  group_by(species)%>%
  filter(weight!="NA")%>%
  count(n_distinct(record_id))
```

```
## # A tibble: 22 x 3
## # Groups:   species [22]
##    species     `n_distinct(record_id)`     n
##    <chr>                         <int> <int>
##  1 albigula                      32283  1152
##  2 baileyi                       32283  2810
##  3 eremicus                      32283  1260
##  4 flavus                        32283  1548
##  5 fulvescens                    32283    75
##  6 fulviventer                   32283    41
##  7 hispidus                      32283   172
##  8 intermedius                   32283     8
##  9 leucogaster                   32283   970
## 10 leucopus                      32283    36
## # ... with 12 more rows
```
…
9. Which two species have, on average, the highest weight? Once you have identified them, make a new column that is a ratio of `weight` to `hindfoot_length`. Make a plot that shows the range of this new ratio and fill by sex.

```r
deserts%>%
  group_by(species)%>%
  summarise(avg_weight=mean(weight,na.rm=T))%>%
  arrange(desc(avg_weight))
```

```
## # A tibble: 40 x 2
##    species      avg_weight
##    <chr>             <dbl>
##  1 albigula          159. 
##  2 spectabilis       120. 
##  3 spilosoma          93.5
##  4 hispidus           65.6
##  5 fulviventer        58.9
##  6 ochrognathus       55.4
##  7 ordii              48.9
##  8 merriami           43.2
##  9 baileyi            31.7
## 10 leucogaster        31.6
## # ... with 30 more rows
```

```r
deserts2<-deserts%>%
  mutate(Weight_hindfoot_ratio=(weight/hindfoot_length))
deserts2
```

```
## # A tibble: 34,786 x 14
##    record_id month   day  year plot_id species_id sex   hindfoot_length weight
##        <dbl> <dbl> <dbl> <dbl>   <dbl> <chr>      <chr>           <dbl>  <dbl>
##  1         1     7    16  1977       2 NL         M                  32     NA
##  2         2     7    16  1977       3 NL         M                  33     NA
##  3         3     7    16  1977       2 DM         F                  37     NA
##  4         4     7    16  1977       7 DM         M                  36     NA
##  5         5     7    16  1977       3 DM         M                  35     NA
##  6         6     7    16  1977       1 PF         M                  14     NA
##  7         7     7    16  1977       2 PE         F                  NA     NA
##  8         8     7    16  1977       1 DM         M                  37     NA
##  9         9     7    16  1977       1 DM         F                  34     NA
## 10        10     7    16  1977       6 PF         F                  20     NA
## # ... with 34,776 more rows, and 5 more variables: genus <chr>, species <chr>,
## #   taxa <chr>, plot_type <chr>, Weight_hindfoot_ratio <dbl>
```
…
