…
**6. (2 points) What is the average age all elephants in the data?**

_The average age of all elephants represented in the data is 10.97132._

```r
elephants %>% 
  arrange(desc(age))
```

```
## # A tibble: 288 x 3
##      age height sex  
##    <dbl>  <dbl> <fct>
##  1  32.2   261. F    
##  2  30.5   227. F    
##  3  30.2   278. F    
##  4  29.2   226. F    
##  5  28.8   302. M    
##  6  28.6   235. F    
##  7  28.4   228. F    
##  8  28.2   216. F    
##  9  28.2   266. M    
## 10  28     232. F    
## # ... with 278 more rows
```
…
**12. (4 points) Based on your interest, do one exploratory analysis on the `gabon` data of your choice. This analysis needs to include a minimum of two functions in `dplyr.`**

_The area with the highest relative abundance of apes is 20.85 km away from any village._


```r
defauntation %>% 
  select(RA_Apes, Distance) %>% 
  arrange(desc(RA_Apes))
```

```
## # A tibble: 24 x 2
##    RA_Apes Distance
##      <dbl>    <dbl>
##  1   12.9     20.8 
##  2    6.17    19.8 
##  3    4.91    26.8 
##  4    4.49    18.3 
##  5    4.21     5.14
##  6    3.92    11.2 
##  7    3.78    24.1 
##  8    2.48    17.5 
##  9    1.87     7.14
## 10    1.83     6.61
## # ... with 14 more rows
```
