…
```r
colleges_clean<-colleges%>%
  janitor::clean_names()
colleges_clean
```

```
## # A tibble: 341 x 10
##    instnm city  stabbr zip   adm_rate sat_avg pcip26 costt4_a c150_4_pooled
##    <chr>  <chr> <chr>  <chr>    <dbl>   <dbl>  <dbl>    <dbl>         <dbl>
##  1 Gross~ El C~ CA     9202~       NA      NA 0.0016     7956        NA    
##  2 Colle~ Visa~ CA     9327~       NA      NA 0.0066     8109        NA    
##  3 Colle~ San ~ CA     9440~       NA      NA 0.0038     8278        NA    
##  4 Ventu~ Vent~ CA     9300~       NA      NA 0.0035     8407        NA    
##  5 Oxnar~ Oxna~ CA     9303~       NA      NA 0.0085     8516        NA    
##  6 Moorp~ Moor~ CA     9302~       NA      NA 0.0151     8577        NA    
##  7 Skyli~ San ~ CA     9406~       NA      NA 0          8580         0.233
##  8 Glend~ Glen~ CA     9120~       NA      NA 0.002      9181        NA    
##  9 Citru~ Glen~ CA     9174~       NA      NA 0.0021     9281        NA    
## 10 Fresn~ Fres~ CA     93741       NA      NA 0.0324     9370        NA    
## # ... with 331 more rows, and 1 more variable: pftftug1_ef <dbl>
```
…
```r
colleges_clean %>% 
  select(city) %>% 
  count(city) %>% 
  arrange(desc(n))
```

```
## # A tibble: 161 x 2
##    city              n
##    <chr>         <int>
##  1 Los Angeles      24
##  2 San Diego        18
##  3 San Francisco    15
##  4 Sacramento       10
##  5 Berkeley          9
##  6 Oakland           9
##  7 Claremont         7
##  8 Pasadena          6
##  9 Fresno            5
## 10 Irvine            5
## # ... with 151 more rows
```
…
_Claremont has the highest average cost._

```r
colleges_clean %>% 
  group_by(city) %>% 
  summarise(max_cost= mean(costt4_a, na.rm=T)) %>% 
  arrange(desc(max_cost))
```

```
## `summarise()` ungrouping output (override with `.groups` argument)
```

```
## # A tibble: 161 x 2
##    city                max_cost
##    <chr>                  <dbl>
##  1 Claremont              66498
##  2 Malibu                 66152
##  3 Valencia               64686
##  4 Orange                 64501
##  5 Redlands               61542
##  6 Moraga                 61095
##  7 Atherton               56035
##  8 Thousand Oaks          54373
##  9 Rancho Palos Verdes    50758
## 10 La Verne               50603
## # ... with 151 more rows
```
…
10. If you wanted to get a degree in biological or biomedical sciences, which campus confers the majority of these degrees? Produce a numerical summary and an appropriate plot.

_San Diego confers the majority of degrees in biological or biomedical sciences at 21.65 %. Davis is a close second at 19.75%!_

```r
colleges_clean %>% 
  select(instnm, pcip26) %>% 
  group_by(pcip26) %>% 
  arrange(desc(pcip26))
```

```
## # A tibble: 341 x 2
## # Groups:   pcip26 [129]
##    instnm                                            pcip26
##    <chr>                                              <dbl>
##  1 University of California-San Diego                 0.216
##  2 University of California-Davis                     0.198
##  3 University of California-Santa Cruz                0.193
##  4 Pomona College                                     0.171
##  5 University of California-Los Angeles               0.155
##  6 Scripps College                                    0.152
##  7 University of California-Riverside                 0.149
##  8 Occidental College                                 0.137
##  9 Southern California University of Health Sciences  0.136
## 10 Notre Dame de Namur University                     0.135
## # ... with 331 more rows
```
…
