…
2. Are these data "tidy" per the definitions of the tidyverse? How do you know? Are they in wide or long format?

_The sydney beach data are tidy because each variable has its own column, each observation has its own row  
and each value has its own cell. They are in long format._

```r
sydneybeaches
```

```
## # A tibble: 3,690 x 8
##    beach_id region    council   site   longitude latitude date  enterococci_cfu~
##       <dbl> <chr>     <chr>     <chr>      <dbl>    <dbl> <chr>            <dbl>
##  1       25 Sydney C~ Randwick~ Clove~      151.    -33.9 02/0~               19
##  2       25 Sydney C~ Randwick~ Clove~      151.    -33.9 06/0~                3
##  3       25 Sydney C~ Randwick~ Clove~      151.    -33.9 12/0~                2
##  4       25 Sydney C~ Randwick~ Clove~      151.    -33.9 18/0~               13
##  5       25 Sydney C~ Randwick~ Clove~      151.    -33.9 30/0~                8
##  6       25 Sydney C~ Randwick~ Clove~      151.    -33.9 05/0~                7
##  7       25 Sydney C~ Randwick~ Clove~      151.    -33.9 11/0~               11
##  8       25 Sydney C~ Randwick~ Clove~      151.    -33.9 23/0~               97
##  9       25 Sydney C~ Randwick~ Clove~      151.    -33.9 07/0~                3
## 10       25 Sydney C~ Randwick~ Clove~      151.    -33.9 25/0~                0
## # ... with 3,680 more rows
```


3. We are only interested in the variables site, date, and enterococci_cfu_100ml. Make a new object focused on these variables only. Name the object `sydneybeaches_long`

```r
sydneybeaches_V2<- sydneybeaches %>% 
  select(site, date, enterococci_cfu_100ml)
sydneybeaches_V2
```

```
## # A tibble: 3,690 x 3
##    site           date       enterococci_cfu_100ml
##    <chr>          <chr>                      <dbl>
##  1 Clovelly Beach 02/01/2013                    19
##  2 Clovelly Beach 06/01/2013                     3
##  3 Clovelly Beach 12/01/2013                     2
##  4 Clovelly Beach 18/01/2013                    13
##  5 Clovelly Beach 30/01/2013                     8
##  6 Clovelly Beach 05/02/2013                     7
##  7 Clovelly Beach 11/02/2013                    11
##  8 Clovelly Beach 23/02/2013                    97
##  9 Clovelly Beach 07/03/2013                     3
## 10 Clovelly Beach 25/03/2013                     0
## # ... with 3,680 more rows
```
…
5. Pivot the data back so that the dates are data and not column names.

```r
sydneybeaches_long<- sydneybeaches_wide %>% 
  pivot_longer(-site,
               names_to = "date",
               values_to = "enterococci_cfu_100ml")
sydneybeaches_long
```

```
## # A tibble: 3,784 x 3
##    site           date       enterococci_cfu_100ml
##    <chr>          <chr>                      <dbl>
##  1 Clovelly Beach 02/01/2013                    19
##  2 Clovelly Beach 06/01/2013                     3
##  3 Clovelly Beach 12/01/2013                     2
##  4 Clovelly Beach 18/01/2013                    13
##  5 Clovelly Beach 30/01/2013                     8
##  6 Clovelly Beach 05/02/2013                     7
##  7 Clovelly Beach 11/02/2013                    11
##  8 Clovelly Beach 23/02/2013                    97
##  9 Clovelly Beach 07/03/2013                     3
## 10 Clovelly Beach 25/03/2013                     0
## # ... with 3,774 more rows
```
…
```
## `summarise()` regrouping output by 'year' (override with `.groups` argument)
```

```r
sydneybeaches_yearly_avg
```

```
## # A tibble: 66 x 3
## # Groups:   year [6]
##    year  site                    mean_enterococci_cfu_100ml
##    <chr> <chr>                                        <dbl>
##  1 2013  Bondi Beach                                  32.2 
##  2 2013  Bronte Beach                                 26.8 
##  3 2013  Clovelly Beach                                9.28
##  4 2013  Coogee Beach                                 39.7 
##  5 2013  Gordons Bay (East)                           24.8 
##  6 2013  Little Bay Beach                            122.  
##  7 2013  Malabar Beach                               101.  
##  8 2013  Maroubra Beach                               47.1 
##  9 2013  South Maroubra Beach                         39.3 
## 10 2013  South Maroubra Rockpool                      96.4 
## # ... with 56 more rows
```
…
10. Perform one analysis of your choice on the data.
_The worst time and place to be swimming in Sydney was 2013 at Little Bay Beach._

```r
sydneybeaches_yearly_avg %>% 
  arrange(desc(mean_enterococci_cfu_100ml))
```

```
## # A tibble: 66 x 3
## # Groups:   year [6]
##    year  site                    mean_enterococci_cfu_100ml
##    <chr> <chr>                                        <dbl>
##  1 2013  Little Bay Beach                             122. 
##  2 2018  South Maroubra Rockpool                      112. 
##  3 2013  Malabar Beach                                101. 
##  4 2013  South Maroubra Rockpool                       96.4
##  5 2016  Malabar Beach                                 91.0
##  6 2015  Malabar Beach                                 66.9
##  7 2016  Bronte Beach                                  61.3
##  8 2016  Coogee Beach                                  59.5
##  9 2016  South Maroubra Rockpool                       59.3
## 10 2018  Little Bay Beach                              59.1
## # ... with 56 more rows
```
…
