…
```
## [1] "birds"         "lake fishes"   "lizards"       "mammals"      
## [5] "marine fishes" "river fishes"  "snakes"        "tortoises"    
## [9] "turtles"
```

```r
taxa<- select(homerange, taxon, common.name, class, order, family, genus, species)
taxa
```

```
## # A tibble: 569 x 7
##    taxon     common.name       class      order     family    genus    species  
##    <fct>     <chr>             <chr>      <fct>     <chr>     <chr>    <chr>    
##  1 lake fis~ american eel      actinopte~ anguilli~ anguilli~ anguilla rostrata 
##  2 river fi~ blacktail redhor~ actinopte~ cyprinif~ catostom~ moxosto~ poecilura
##  3 river fi~ central stonerol~ actinopte~ cyprinif~ cyprinid~ campost~ anomalum 
##  4 river fi~ rosyside dace     actinopte~ cyprinif~ cyprinid~ clinost~ funduloi~
##  5 river fi~ longnose dace     actinopte~ cyprinif~ cyprinid~ rhinich~ cataract~
##  6 river fi~ muskellunge       actinopte~ esocifor~ esocidae  esox     masquino~
##  7 marine f~ pollack           actinopte~ gadiform~ gadidae   pollach~ pollachi~
##  8 marine f~ saithe            actinopte~ gadiform~ gadidae   pollach~ virens   
##  9 marine f~ lined surgeonfish actinopte~ percifor~ acanthur~ acanthu~ lineatus 
## 10 marine f~ orangespine unic~ actinopte~ percifor~ acanthur~ naso     lituratus
## # ... with 559 more rows
```
…
