…
2. Notice that we have some neutral superheros! Who are they?

```r
superhero_info %>% 
  filter( alignment== "neutral") %>% 
  select("name")
```

```
## # A tibble: 24 x 1
##    name        
##    <chr>       
##  1 Bizarro     
##  2 Black Flash 
##  3 Captain Cold
##  4 Copycat     
##  5 Deadpool    
##  6 Deathstroke 
##  7 Etrigan     
##  8 Galactus    
##  9 Gladiator   
## 10 Indigo      
## # ... with 14 more rows
```

## `superhero_info`
3. Let's say we are only interested in the variables name, alignment, and "race". How would you isolate these variables from `superhero_info`?

```r
superhero_info %>% 
  select(alignment, name, race)
```

```
## # A tibble: 734 x 3
##    alignment name          race             
##    <chr>     <chr>         <chr>            
##  1 good      A-Bomb        Human            
##  2 good      Abe Sapien    Icthyo Sapien    
##  3 good      Abin Sur      Ungaran          
##  4 bad       Abomination   Human / Radiation
##  5 bad       Abraxas       Cosmic Entity    
##  6 bad       Absorbing Man Human            
##  7 good      Adam Monroe   <NA>             
##  8 good      Adam Strange  Human            
##  9 good      Agent 13      <NA>             
## 10 good      Agent Bob     Human            
## # ... with 724 more rows
```

## Not Human
4. List all of the superheros that are not human.

```r
superhero_info %>% 
  select(name, alignment, race) %>% 
  filter(race != "Human")
```

```
## # A tibble: 222 x 3
##    name         alignment race             
##    <chr>        <chr>     <chr>            
##  1 Abe Sapien   good      Icthyo Sapien    
##  2 Abin Sur     good      Ungaran          
##  3 Abomination  bad       Human / Radiation
##  4 Abraxas      bad       Cosmic Entity    
##  5 Ajax         bad       Cyborg           
##  6 Alien        bad       Xenomorph XX121  
##  7 Amazo        bad       Android          
##  8 Angel        good      Vampire          
##  9 Angel Dust   good      Mutant           
## 10 Anti-Monitor bad       God / Eternal    
## # ... with 212 more rows
```
…
## Height to Weight Ratio
13. It's easy to be strong when you are heavy and tall, but who is heavy and short? Which superheros have the highest height to weight ratio?
_These are the superheros with the highest weight to height ratios, with the number one spot going to Giganta._

```r
superhero_info %>%
  mutate(height_weight = weight/height) %>% 
  select(name, height, weight, height_weight) %>% 
  arrange(desc(height_weight))
```

```
## # A tibble: 734 x 4
##    name        height weight height_weight
##    <chr>        <dbl>  <dbl>         <dbl>
##  1 Giganta       62.5    630         10.1 
##  2 Utgard-Loki   15.2     58          3.82
##  3 Darkseid     267      817          3.06
##  4 Juggernaut   287      855          2.98
##  5 Red Hulk     213      630          2.96
##  6 Sasquatch    305      900          2.95
##  7 Hulk         244      630          2.58
##  8 Bloodaxe     218      495          2.27
##  9 Thanos       201      443          2.20
## 10 A-Bomb       203      441          2.17
## # ... with 724 more rows
```
…
14. How many superheros have a combination of accelerated healing, durability, and super strength?
_There are 97 superheroes with this combination._

```r
superhero_powers %>% 
  filter(durability== "TRUE", accelerated_healing== "TRUE", super_strength== "TRUE") %>% 
  select(hero_names)
```

```
## # A tibble: 97 x 1
##    hero_names  
##    <chr>       
##  1 A-Bomb      
##  2 Abe Sapien  
##  3 Angel       
##  4 Anti-Monitor
##  5 Anti-Venom  
##  6 Aquaman     
##  7 Arachne     
##  8 Archangel   
##  9 Ardina      
## 10 Ares        
## # ... with 87 more rows
```


## `kinesis`
15. We are only interested in the superheros that do some kind of "kinesis". How would we isolate them from the `superhero_powers` data?



```r
superhero_powers %>% 
  select(hero_names, ends_with("esis")) %>% 
  filter_all(any_vars(.==TRUE))
```

```
## # A tibble: 112 x 10
##    hero_names cryokinesis electrokinesis telekinesis hyperkinesis hypnokinesis
##    <chr>      <lgl>       <lgl>          <lgl>       <lgl>        <lgl>       
##  1 Alan Scott FALSE       FALSE          FALSE       FALSE        TRUE        
##  2 Amazo      TRUE        FALSE          FALSE       FALSE        FALSE       
##  3 Apocalypse FALSE       FALSE          TRUE        FALSE        FALSE       
##  4 Aqualad    TRUE        FALSE          FALSE       FALSE        FALSE       
##  5 Beyonder   FALSE       FALSE          TRUE        FALSE        FALSE       
##  6 Bizarro    TRUE        FALSE          FALSE       FALSE        TRUE        
##  7 Black Abb~ FALSE       FALSE          TRUE        FALSE        FALSE       
##  8 Black Adam FALSE       FALSE          TRUE        FALSE        FALSE       
##  9 Black Lig~ FALSE       TRUE           FALSE       FALSE        FALSE       
## 10 Black Mam~ FALSE       FALSE          FALSE       FALSE        TRUE        
## # ... with 102 more rows, and 4 more variables: thirstokinesis <lgl>,
## #   biokinesis <lgl>, terrakinesis <lgl>, vitakinesis <lgl>
```
…
