…
fisheries_tidy$catch <- as.numeric(fisheries_tidy$catch)
```

3. How many countries are represented in the data? Provide a count and list their names.
_203 countries are represented in the data._

```r
fisheries_tidy %>% 
   count(country, sort = T)
```

```
## # A tibble: 203 x 2
##    country                      n
##    <fct>                    <int>
##  1 United States of America 18080
##  2 Spain                    17482
##  3 Japan                    15429
##  4 Portugal                 11570
##  5 Korea, Republic of       10824
##  6 France                   10639
##  7 Taiwan Province of China  9927
##  8 Indonesia                 9274
##  9 Australia                 8183
## 10 Un. Sov. Soc. Rep.        7084
## # ... with 193 more rows
```

4. Refocus the data only to include only: country, isscaap_taxonomic_group, asfis_species_name, asfis_species_number, year, catch.

```r
fisheries_tidy %>% 
  select(country, isscaap_taxonomic_group, asfis_species_name, asfis_species_number, year, catch)
```

```
## # A tibble: 376,771 x 6
##    country isscaap_taxonomic_g~ asfis_species_na~ asfis_species_num~  year catch
##    <fct>   <chr>                <chr>             <fct>              <dbl> <dbl>
##  1 Albania Sharks, rays, chima~ Squatinidae       10903XXXXX          1995    NA
##  2 Albania Sharks, rays, chima~ Squatinidae       10903XXXXX          1996    53
##  3 Albania Sharks, rays, chima~ Squatinidae       10903XXXXX          1997    20
##  4 Albania Sharks, rays, chima~ Squatinidae       10903XXXXX          1998    31
##  5 Albania Sharks, rays, chima~ Squatinidae       10903XXXXX          1999    30
##  6 Albania Sharks, rays, chima~ Squatinidae       10903XXXXX          2000    30
##  7 Albania Sharks, rays, chima~ Squatinidae       10903XXXXX          2001    16
##  8 Albania Sharks, rays, chima~ Squatinidae       10903XXXXX          2002    79
##  9 Albania Sharks, rays, chima~ Squatinidae       10903XXXXX          2003     1
## 10 Albania Sharks, rays, chima~ Squatinidae       10903XXXXX          2004     4
## # ... with 376,761 more rows
```
…
6. Which country had the largest overall catch in the year 2000?
_China had the largest catch in the year 2000._

```r
fisheries_tidy %>% 
  select(year, country, catch) %>% 
  group_by(country) %>% 
  filter(year== 2000, catch != "NA") %>%
  summarise(largest_catch= sum(catch)) %>% 
  arrange(desc(largest_catch))
```

```
## # A tibble: 187 x 2
##    country                  largest_catch
##    <fct>                            <dbl>
##  1 China                            25899
##  2 Russian Federation               12181
##  3 United States of America         11762
##  4 Japan                             8510
##  5 Indonesia                         8341
##  6 Peru                              7443
##  7 Chile                             6906
##  8 India                             6351
##  9 Thailand                          6243
## 10 Korea, Republic of                6124
## # ... with 177 more rows
```
…
## Warning in max(catch, na.rm = T): max 中沒有無漏失的引數；回傳 -Inf

## Warning in max(catch, na.rm = T): max 中沒有無漏失的引數；回傳 -Inf

## Warning in max(catch, na.rm = T): max 中沒有無漏失的引數；回傳 -Inf

## Warning in max(catch, na.rm = T): max 中沒有無漏失的引數；回傳 -Inf

## Warning in max(catch, na.rm = T): max 中沒有無漏失的引數；回傳 -Inf
```

```
## # A tibble: 193 x 2
##    country                  largest_catch
##    <fct>                            <dbl>
##  1 China                             9068
##  2 Peru                              5717
##  3 Russian Federation                5065
##  4 Viet Nam                          4945
##  5 Chile                             4299
##  6 United States of America          2438
##  7 Philippines                        999
##  8 Japan                              988
##  9 Bangladesh                         977
## 10 Senegal                            970
## # ... with 183 more rows
```
…
```r
fisheries_tidy %>% 
  select(country, asfis_species_name, year, catch,) %>% 
  filter(asfis_species_name=="Sardina pilchardus",between(year,1990,2000)) %>%
  group_by(country) %>% 
  filter(catch != "NA") %>% 
  summarise(sardine_total=sum(catch)) %>%  
  arrange(desc(sardine_total))
```

```
## # A tibble: 37 x 2
##    country               sardine_total
##    <fct>                         <dbl>
##  1 Morocco                        7470
##  2 Spain                          3507
##  3 Russian Federation             1639
##  4 Ukraine                        1030
##  5 France                          966
##  6 Portugal                        818
##  7 Greece                          528
##  8 Italy                           507
##  9 Serbia and Montenegro           478
## 10 Denmark                         477
## # ... with 27 more rows
```
8. Which five countries caught the most cephalopods between 2008-2012?
_China, Korea, Peru, Japan, and Chile caught the most cephalopods between 2008 and 2012._

```r
fisheries_tidy%>%
  select(country,isscaap_taxonomic_group,year,catch)%>%
  filter(isscaap_taxonomic_group=="Squids, cuttlefishes, octopuses",between(year,2008,2012))%>%
  group_by(country)%>%
  filter(catch != "NA")%>%
  summarize(ceph_total=sum(catch))%>%
  arrange(desc(ceph_total))
```

```
## # A tibble: 116 x 2
##    country                  ceph_total
##    <fct>                         <dbl>
##  1 China                          8349
##  2 Korea, Republic of             3480
##  3 Peru                           3422
##  4 Japan                          3248
##  5 Chile                          2775
##  6 United States of America       2417
##  7 Indonesia                      1622
##  8 Taiwan Province of China       1394
##  9 Spain                          1147
## 10 France                         1138
## # ... with 106 more rows
```

9. Which species had the highest catch total between 2008-2012? (hint: Osteichthyes is not a species)
_Theragra chalcogramma had the highest catch total between 2008 and 2012._

```r
fisheries_tidy %>% 
  filter(between(year, 2008, 2012), catch!= "NA") %>% 
  select(year, asfis_species_name, common_name, catch) %>% 
  group_by(asfis_species_name) %>% 
  summarise(catch_total= sum(catch)) %>% 
  arrange(desc(catch_total))
```

```
## # A tibble: 1,353 x 2
##    asfis_species_name    catch_total
##    <chr>                       <dbl>
##  1 Osteichthyes               107808
##  2 Theragra chalcogramma       41075
##  3 Engraulis ringens           35523
##  4 Katsuwonus pelamis          32153
##  5 Trichiurus lepturus         30400
##  6 Clupea harengus             28527
##  7 Thunnus albacares           20119
##  8 Scomber japonicus           14723
##  9 Gadus morhua                13253
## 10 Thunnus alalunga            12019
## # ... with 1,343 more rows
```

10. Use the data to do at least one analysis of your choice.
_Myanmar had the highest mean catch over the the recorded years!_

```r
fisheries_tidy%>%
  group_by(country)%>%
  filter(catch != "NA")%>%
  summarise(mean_catch=mean(catch))%>%
  arrange(desc(mean_catch))
```

```
## # A tibble: 199 x 2
##    country                  mean_catch
##    <fct>                         <dbl>
##  1 Myanmar                       670. 
##  2 Peru                          332. 
##  3 China                         321. 
##  4 Viet Nam                      247. 
##  5 Bangladesh                    185. 
##  6 Chile                         138. 
##  7 Norway                        111. 
##  8 Korea, Dem. People's Rep       99.3
##  9 Iceland                        79.8
## 10 Russian Federation             76.8
## # ... with 189 more rows
```
…
