…
**6. Use the package `naniar` to produce a summary, including percentages, of missing data in each column for the `amniota` data.**  

```r
amniota_tidy%>%
  naniar::miss_var_summary()
```

```
## # A tibble: 36 x 3
##    variable                       n_miss pct_miss
##    <chr>                           <int>    <dbl>
##  1 subspecies                      21322    100  
##  2 female_body_mass_at_maturity_g  21318    100. 
##  3 female_svl_at_maturity_cm       21120     99.1
##  4 fledging_mass_g                 21111     99.0
##  5 male_svl_cm                     21040     98.7
##  6 no_sex_maturity_d               20860     97.8
##  7 egg_width_mm                    20727     97.2
##  8 egg_length_mm                   20702     97.1
##  9 weaning_weight_g                20258     95.0
## 10 female_svl_cm                   20242     94.9
## # ... with 26 more rows
```

**7. Use the package `naniar` to produce a summary, including percentages, of missing data in each column for the `amphibio` data.**

```r
amphibio %>% 
  naniar::miss_var_summary()
```

```
## # A tibble: 38 x 3
##    variable n_miss pct_miss
##    <chr>     <int>    <dbl>
##  1 OBS        6776    100  
##  2 Fruits     6774    100. 
##  3 Flowers    6772     99.9
##  4 Seeds      6772     99.9
##  5 Leaves     6752     99.6
##  6 Dry_cold   6735     99.4
##  7 Vert       6657     98.2
##  8 Wet_cold   6625     97.8
##  9 Crepu      6608     97.5
## 10 Dry_warm   6572     97.0
## # ... with 28 more rows
```
…
```
## [1] 188.7544
```

```r
amphibio %>% 
  select(Fos, Aqu, Arb) %>%
  filter(Fos=="1",Aqu== "1")
```

```
## # A tibble: 591 x 3
##      Fos   Aqu   Arb
##    <dbl> <dbl> <dbl>
##  1     1     1     1
##  2     1     1    NA
##  3     1     1    NA
##  4     1     1    NA
##  5     1     1    NA
##  6     1     1    NA
##  7     1     1    NA
##  8     1     1    NA
##  9     1     1    NA
## 10     1     1    NA
## # ... with 581 more rows
```
…
